<?xml version="1.0" encoding="UTF-8" standalone="no"?>
<svg
   xmlns:dc="http://purl.org/dc/elements/1.1/"
   xmlns:cc="http://creativecommons.org/ns#"
   xmlns:rdf="http://www.w3.org/1999/02/22-rdf-syntax-ns#"
   xmlns:svg="http://www.w3.org/2000/svg"
   xmlns="http://www.w3.org/2000/svg"
   xmlns:xlink="http://www.w3.org/1999/xlink"
   xmlns:sodipodi="http://sodipodi.sourceforge.net/DTD/sodipodi-0.dtd"
   xmlns:inkscape="http://www.inkscape.org/namespaces/inkscape"
   version="1.1"
   width="172.99461"
   height="221.10721"
   viewBox="0 0 172.99461 221.10722"
   id="svg455"
   sodipodi:docname="siteqr.svg"
   inkscape:version="0.92.2 (5c3e80d, 2017-08-06)">
  <metadata
     id="metadata459">
    <rdf:RDF>
      <cc:Work
         rdf:about="">
        <dc:format>image/svg+xml</dc:format>
        <dc:type
           rdf:resource="http://purl.org/dc/dcmitype/StillImage" />
        <dc:title></dc:title>
      </cc:Work>
    </rdf:RDF>
  </metadata>
  <sodipodi:namedview
     pagecolor="#ffffff"
     bordercolor="#666666"
     borderopacity="1"
     objecttolerance="10"
     gridtolerance="10"
     guidetolerance="10"
     inkscape:pageopacity="0"
     inkscape:pageshadow="2"
     inkscape:window-width="1920"
     inkscape:window-height="1056"
     id="namedview457"
     showgrid="false"
     inkscape:zoom="2.0344828"
     inkscape:cx="67.036332"
     inkscape:cy="45.952321"
     inkscape:window-x="0"
     inkscape:window-y="24"
     inkscape:window-maximized="1"
     inkscape:current-layer="svg455"
     fit-margin-top="1"
     fit-margin-left="1"
     fit-margin-right="1"
     fit-margin-bottom="1"
     inkscape:snap-bbox="true"
     inkscape:bbox-paths="true"
     inkscape:bbox-nodes="true"
     inkscape:snap-bbox-edge-midpoints="true"
     inkscape:snap-bbox-midpoints="true"
     inkscape:snap-page="true"
     inkscape:snap-center="true"
     inkscape:snap-object-midpoints="true" />
  <desc
     id="desc2" />
  <defs
     id="defs7">
    <rect
       id="p"
       width="8"
       height="8"
       x="0"
       y="0" />
  </defs>
  <g
     id="g1144"
     transform="translate(1,1)">
    <use
       transform="translate(-31.5,-31.5)"
       x="32"
       y="32"
       xlink:href="#p"
       id="use9"
       style="fill:#000000;stroke:#000000;stroke-opacity:1"
       width="100%"
       height="100%" />
    <use
       transform="translate(-31.5,-31.5)"
       x="32"
       y="40"
       xlink:href="#p"
       id="use11"
       style="fill:#000000;stroke:#000000;stroke-opacity:1"
       width="100%"
       height="100%" />
    <use
       transform="translate(-31.5,-31.5)"
       x="32"
       y="48"
       xlink:href="#p"
       id="use13"
       style="fill:#000000;stroke:#000000;stroke-opacity:1"
       width="100%"
       height="100%" />
    <use
       transform="translate(-31.5,-31.5)"
       x="32"
       y="56"
       xlink:href="#p"
       id="use15"
       style="fill:#000000;stroke:#000000;stroke-opacity:1"
       width="100%"
       height="100%" />
    <use
       transform="translate(-31.5,-31.5)"
       x="32"
       y="64"
       xlink:href="#p"
       id="use17"
       style="fill:#000000;stroke:#000000;stroke-opacity:1"
       width="100%"
       height="100%" />
    <use
       transform="translate(-31.5,-31.5)"
       x="32"
       y="72"
       xlink:href="#p"
       id="use19"
       style="fill:#000000;stroke:#000000;stroke-opacity:1"
       width="100%"
       height="100%" />
    <use
       transform="translate(-31.5,-31.5)"
       x="32"
       y="80"
       xlink:href="#p"
       id="use21"
       style="fill:#000000;stroke:#000000;stroke-opacity:1"
       width="100%"
       height="100%" />
    <use
       transform="translate(-31.5,-31.5)"
       x="32"
       y="96"
       xlink:href="#p"
       id="use23"
       style="fill:#000000;stroke:#000000;stroke-opacity:1"
       width="100%"
       height="100%" />
    <use
       transform="translate(-31.5,-31.5)"
       x="32"
       y="104"
       xlink:href="#p"
       id="use25"
       style="fill:#000000;stroke:#000000;stroke-opacity:1"
       width="100%"
       height="100%" />
    <use
       transform="translate(-31.5,-31.5)"
       x="32"
       y="120"
       xlink:href="#p"
       id="use27"
       style="fill:#000000;stroke:#000000;stroke-opacity:1"
       width="100%"
       height="100%" />
    <use
       transform="translate(-31.5,-31.5)"
       x="32"
       y="128"
       xlink:href="#p"
       id="use29"
       style="fill:#000000;stroke:#000000;stroke-opacity:1"
       width="100%"
       height="100%" />
    <use
       transform="translate(-31.5,-31.5)"
       x="32"
       y="144"
       xlink:href="#p"
       id="use31"
       style="fill:#000000;stroke:#000000;stroke-opacity:1"
       width="100%"
       height="100%" />
    <use
       transform="translate(-31.5,-31.5)"
       x="32"
       y="152"
       xlink:href="#p"
       id="use33"
       style="fill:#000000;stroke:#000000;stroke-opacity:1"
       width="100%"
       height="100%" />
    <use
       transform="translate(-31.5,-31.5)"
       x="32"
       y="160"
       xlink:href="#p"
       id="use35"
       style="fill:#000000;stroke:#000000;stroke-opacity:1"
       width="100%"
       height="100%" />
    <use
       transform="translate(-31.5,-31.5)"
       x="32"
       y="168"
       xlink:href="#p"
       id="use37"
       style="fill:#000000;stroke:#000000;stroke-opacity:1"
       width="100%"
       height="100%" />
    <use
       transform="translate(-31.5,-31.5)"
       x="32"
       y="176"
       xlink:href="#p"
       id="use39"
       style="fill:#000000;stroke:#000000;stroke-opacity:1"
       width="100%"
       height="100%" />
    <use
       transform="translate(-31.5,-31.5)"
       x="32"
       y="184"
       xlink:href="#p"
       id="use41"
       style="fill:#000000;stroke:#000000;stroke-opacity:1"
       width="100%"
       height="100%" />
    <use
       transform="translate(-31.5,-31.5)"
       x="32"
       y="192"
       xlink:href="#p"
       id="use43"
       style="fill:#000000;stroke:#000000;stroke-opacity:1"
       width="100%"
       height="100%" />
    <use
       transform="translate(-31.5,-31.5)"
       x="40"
       y="32"
       xlink:href="#p"
       id="use45"
       style="fill:#000000;stroke:#000000;stroke-opacity:1"
       width="100%"
       height="100%" />
    <use
       transform="translate(-31.5,-31.5)"
       x="40"
       y="80"
       xlink:href="#p"
       id="use47"
       style="fill:#000000;stroke:#000000;stroke-opacity:1"
       width="100%"
       height="100%" />
    <use
       transform="translate(-31.5,-31.5)"
       x="40"
       y="96"
       xlink:href="#p"
       id="use49"
       style="fill:#000000;stroke:#000000;stroke-opacity:1"
       width="100%"
       height="100%" />
    <use
       transform="translate(-31.5,-31.5)"
       x="40"
       y="112"
       xlink:href="#p"
       id="use51"
       style="fill:#000000;stroke:#000000;stroke-opacity:1"
       width="100%"
       height="100%" />
    <use
       transform="translate(-31.5,-31.5)"
       x="40"
       y="144"
       xlink:href="#p"
       id="use53"
       style="fill:#000000;stroke:#000000;stroke-opacity:1"
       width="100%"
       height="100%" />
    <use
       transform="translate(-31.5,-31.5)"
       x="40"
       y="192"
       xlink:href="#p"
       id="use55"
       style="fill:#000000;stroke:#000000;stroke-opacity:1"
       width="100%"
       height="100%" />
    <use
       transform="translate(-31.5,-31.5)"
       x="48"
       y="32"
       xlink:href="#p"
       id="use57"
       style="fill:#000000;stroke:#000000;stroke-opacity:1"
       width="100%"
       height="100%" />
    <use
       transform="translate(-31.5,-31.5)"
       x="48"
       y="48"
       xlink:href="#p"
       id="use59"
       style="fill:#000000;stroke:#000000;stroke-opacity:1"
       width="100%"
       height="100%" />
    <use
       transform="translate(-31.5,-31.5)"
       x="48"
       y="56"
       xlink:href="#p"
       id="use61"
       style="fill:#000000;stroke:#000000;stroke-opacity:1"
       width="100%"
       height="100%" />
    <use
       transform="translate(-31.5,-31.5)"
       x="48"
       y="64"
       xlink:href="#p"
       id="use63"
       style="fill:#000000;stroke:#000000;stroke-opacity:1"
       width="100%"
       height="100%" />
    <use
       transform="translate(-31.5,-31.5)"
       x="48"
       y="80"
       xlink:href="#p"
       id="use65"
       style="fill:#000000;stroke:#000000;stroke-opacity:1"
       width="100%"
       height="100%" />
    <use
       transform="translate(-31.5,-31.5)"
       x="48"
       y="144"
       xlink:href="#p"
       id="use67"
       style="fill:#000000;stroke:#000000;stroke-opacity:1"
       width="100%"
       height="100%" />
    <use
       transform="translate(-31.5,-31.5)"
       x="48"
       y="160"
       xlink:href="#p"
       id="use69"
       style="fill:#000000;stroke:#000000;stroke-opacity:1"
       width="100%"
       height="100%" />
    <use
       transform="translate(-31.5,-31.5)"
       x="48"
       y="168"
       xlink:href="#p"
       id="use71"
       style="fill:#000000;stroke:#000000;stroke-opacity:1"
       width="100%"
       height="100%" />
    <use
       transform="translate(-31.5,-31.5)"
       x="48"
       y="176"
       xlink:href="#p"
       id="use73"
       style="fill:#000000;stroke:#000000;stroke-opacity:1"
       width="100%"
       height="100%" />
    <use
       transform="translate(-31.5,-31.5)"
       x="48"
       y="192"
       xlink:href="#p"
       id="use75"
       style="fill:#000000;stroke:#000000;stroke-opacity:1"
       width="100%"
       height="100%" />
    <use
       transform="translate(-31.5,-31.5)"
       x="56"
       y="32"
       xlink:href="#p"
       id="use77"
       style="fill:#000000;stroke:#000000;stroke-opacity:1"
       width="100%"
       height="100%" />
    <use
       transform="translate(-31.5,-31.5)"
       x="56"
       y="48"
       xlink:href="#p"
       id="use79"
       style="fill:#000000;stroke:#000000;stroke-opacity:1"
       width="100%"
       height="100%" />
    <use
       transform="translate(-31.5,-31.5)"
       x="56"
       y="56"
       xlink:href="#p"
       id="use81"
       style="fill:#000000;stroke:#000000;stroke-opacity:1"
       width="100%"
       height="100%" />
    <use
       transform="translate(-31.5,-31.5)"
       x="56"
       y="64"
       xlink:href="#p"
       id="use83"
       style="fill:#000000;stroke:#000000;stroke-opacity:1"
       width="100%"
       height="100%" />
    <use
       transform="translate(-31.5,-31.5)"
       x="56"
       y="80"
       xlink:href="#p"
       id="use85"
       style="fill:#000000;stroke:#000000;stroke-opacity:1"
       width="100%"
       height="100%" />
    <use
       transform="translate(-31.5,-31.5)"
       x="56"
       y="104"
       xlink:href="#p"
       id="use87"
       style="fill:#000000;stroke:#000000;stroke-opacity:1"
       width="100%"
       height="100%" />
    <use
       transform="translate(-31.5,-31.5)"
       x="56"
       y="144"
       xlink:href="#p"
       id="use89"
       style="fill:#000000;stroke:#000000;stroke-opacity:1"
       width="100%"
       height="100%" />
    <use
       transform="translate(-31.5,-31.5)"
       x="56"
       y="160"
       xlink:href="#p"
       id="use91"
       style="fill:#000000;stroke:#000000;stroke-opacity:1"
       width="100%"
       height="100%" />
    <use
       transform="translate(-31.5,-31.5)"
       x="56"
       y="168"
       xlink:href="#p"
       id="use93"
       style="fill:#000000;stroke:#000000;stroke-opacity:1"
       width="100%"
       height="100%" />
    <use
       transform="translate(-31.5,-31.5)"
       x="56"
       y="176"
       xlink:href="#p"
       id="use95"
       style="fill:#000000;stroke:#000000;stroke-opacity:1"
       width="100%"
       height="100%" />
    <use
       transform="translate(-31.5,-31.5)"
       x="56"
       y="192"
       xlink:href="#p"
       id="use97"
       style="fill:#000000;stroke:#000000;stroke-opacity:1"
       width="100%"
       height="100%" />
    <use
       transform="translate(-31.5,-31.5)"
       x="64"
       y="32"
       xlink:href="#p"
       id="use99"
       style="fill:#000000;stroke:#000000;stroke-opacity:1"
       width="100%"
       height="100%" />
    <use
       transform="translate(-31.5,-31.5)"
       x="64"
       y="48"
       xlink:href="#p"
       id="use101"
       style="fill:#000000;stroke:#000000;stroke-opacity:1"
       width="100%"
       height="100%" />
    <use
       transform="translate(-31.5,-31.5)"
       x="64"
       y="56"
       xlink:href="#p"
       id="use103"
       style="fill:#000000;stroke:#000000;stroke-opacity:1"
       width="100%"
       height="100%" />
    <use
       transform="translate(-31.5,-31.5)"
       x="64"
       y="64"
       xlink:href="#p"
       id="use105"
       style="fill:#000000;stroke:#000000;stroke-opacity:1"
       width="100%"
       height="100%" />
    <use
       transform="translate(-31.5,-31.5)"
       x="64"
       y="80"
       xlink:href="#p"
       id="use107"
       style="fill:#000000;stroke:#000000;stroke-opacity:1"
       width="100%"
       height="100%" />
    <use
       transform="translate(-31.5,-31.5)"
       x="64"
       y="96"
       xlink:href="#p"
       id="use109"
       style="fill:#000000;stroke:#000000;stroke-opacity:1"
       width="100%"
       height="100%" />
    <use
       transform="translate(-31.5,-31.5)"
       x="64"
       y="104"
       xlink:href="#p"
       id="use111"
       style="fill:#000000;stroke:#000000;stroke-opacity:1"
       width="100%"
       height="100%" />
    <use
       transform="translate(-31.5,-31.5)"
       x="64"
       y="120"
       xlink:href="#p"
       id="use113"
       style="fill:#000000;stroke:#000000;stroke-opacity:1"
       width="100%"
       height="100%" />
    <use
       transform="translate(-31.5,-31.5)"
       x="64"
       y="128"
       xlink:href="#p"
       id="use115"
       style="fill:#000000;stroke:#000000;stroke-opacity:1"
       width="100%"
       height="100%" />
    <use
       transform="translate(-31.5,-31.5)"
       x="64"
       y="144"
       xlink:href="#p"
       id="use117"
       style="fill:#000000;stroke:#000000;stroke-opacity:1"
       width="100%"
       height="100%" />
    <use
       transform="translate(-31.5,-31.5)"
       x="64"
       y="160"
       xlink:href="#p"
       id="use119"
       style="fill:#000000;stroke:#000000;stroke-opacity:1"
       width="100%"
       height="100%" />
    <use
       transform="translate(-31.5,-31.5)"
       x="64"
       y="168"
       xlink:href="#p"
       id="use121"
       style="fill:#000000;stroke:#000000;stroke-opacity:1"
       width="100%"
       height="100%" />
    <use
       transform="translate(-31.5,-31.5)"
       x="64"
       y="176"
       xlink:href="#p"
       id="use123"
       style="fill:#000000;stroke:#000000;stroke-opacity:1"
       width="100%"
       height="100%" />
    <use
       transform="translate(-31.5,-31.5)"
       x="64"
       y="192"
       xlink:href="#p"
       id="use125"
       style="fill:#000000;stroke:#000000;stroke-opacity:1"
       width="100%"
       height="100%" />
    <use
       transform="translate(-31.5,-31.5)"
       x="72"
       y="32"
       xlink:href="#p"
       id="use127"
       style="fill:#000000;stroke:#000000;stroke-opacity:1"
       width="100%"
       height="100%" />
    <use
       transform="translate(-31.5,-31.5)"
       x="72"
       y="80"
       xlink:href="#p"
       id="use129"
       style="fill:#000000;stroke:#000000;stroke-opacity:1"
       width="100%"
       height="100%" />
    <use
       transform="translate(-31.5,-31.5)"
       x="72"
       y="96"
       xlink:href="#p"
       id="use131"
       style="fill:#000000;stroke:#000000;stroke-opacity:1"
       width="100%"
       height="100%" />
    <use
       transform="translate(-31.5,-31.5)"
       x="72"
       y="112"
       xlink:href="#p"
       id="use133"
       style="fill:#000000;stroke:#000000;stroke-opacity:1"
       width="100%"
       height="100%" />
    <use
       transform="translate(-31.5,-31.5)"
       x="72"
       y="128"
       xlink:href="#p"
       id="use135"
       style="fill:#000000;stroke:#000000;stroke-opacity:1"
       width="100%"
       height="100%" />
    <use
       transform="translate(-31.5,-31.5)"
       x="72"
       y="144"
       xlink:href="#p"
       id="use137"
       style="fill:#000000;stroke:#000000;stroke-opacity:1"
       width="100%"
       height="100%" />
    <use
       transform="translate(-31.5,-31.5)"
       x="72"
       y="192"
       xlink:href="#p"
       id="use139"
       style="fill:#000000;stroke:#000000;stroke-opacity:1"
       width="100%"
       height="100%" />
    <use
       transform="translate(-31.5,-31.5)"
       x="80"
       y="32"
       xlink:href="#p"
       id="use141"
       style="fill:#000000;stroke:#000000;stroke-opacity:1"
       width="100%"
       height="100%" />
    <use
       transform="translate(-31.5,-31.5)"
       x="80"
       y="40"
       xlink:href="#p"
       id="use143"
       style="fill:#000000;stroke:#000000;stroke-opacity:1"
       width="100%"
       height="100%" />
    <use
       transform="translate(-31.5,-31.5)"
       x="80"
       y="48"
       xlink:href="#p"
       id="use145"
       style="fill:#000000;stroke:#000000;stroke-opacity:1"
       width="100%"
       height="100%" />
    <use
       transform="translate(-31.5,-31.5)"
       x="80"
       y="56"
       xlink:href="#p"
       id="use147"
       style="fill:#000000;stroke:#000000;stroke-opacity:1"
       width="100%"
       height="100%" />
    <use
       transform="translate(-31.5,-31.5)"
       x="80"
       y="64"
       xlink:href="#p"
       id="use149"
       style="fill:#000000;stroke:#000000;stroke-opacity:1"
       width="100%"
       height="100%" />
    <use
       transform="translate(-31.5,-31.5)"
       x="80"
       y="72"
       xlink:href="#p"
       id="use151"
       style="fill:#000000;stroke:#000000;stroke-opacity:1"
       width="100%"
       height="100%" />
    <use
       transform="translate(-31.5,-31.5)"
       x="80"
       y="80"
       xlink:href="#p"
       id="use153"
       style="fill:#000000;stroke:#000000;stroke-opacity:1"
       width="100%"
       height="100%" />
    <use
       transform="translate(-31.5,-31.5)"
       x="80"
       y="96"
       xlink:href="#p"
       id="use155"
       style="fill:#000000;stroke:#000000;stroke-opacity:1"
       width="100%"
       height="100%" />
    <use
       transform="translate(-31.5,-31.5)"
       x="80"
       y="112"
       xlink:href="#p"
       id="use157"
       style="fill:#000000;stroke:#000000;stroke-opacity:1"
       width="100%"
       height="100%" />
    <use
       transform="translate(-31.5,-31.5)"
       x="80"
       y="128"
       xlink:href="#p"
       id="use159"
       style="fill:#000000;stroke:#000000;stroke-opacity:1"
       width="100%"
       height="100%" />
    <use
       transform="translate(-31.5,-31.5)"
       x="80"
       y="144"
       xlink:href="#p"
       id="use161"
       style="fill:#000000;stroke:#000000;stroke-opacity:1"
       width="100%"
       height="100%" />
    <use
       transform="translate(-31.5,-31.5)"
       x="80"
       y="152"
       xlink:href="#p"
       id="use163"
       style="fill:#000000;stroke:#000000;stroke-opacity:1"
       width="100%"
       height="100%" />
    <use
       transform="translate(-31.5,-31.5)"
       x="80"
       y="160"
       xlink:href="#p"
       id="use165"
       style="fill:#000000;stroke:#000000;stroke-opacity:1"
       width="100%"
       height="100%" />
    <use
       transform="translate(-31.5,-31.5)"
       x="80"
       y="168"
       xlink:href="#p"
       id="use167"
       style="fill:#000000;stroke:#000000;stroke-opacity:1"
       width="100%"
       height="100%" />
    <use
       transform="translate(-31.5,-31.5)"
       x="80"
       y="176"
       xlink:href="#p"
       id="use169"
       style="fill:#000000;stroke:#000000;stroke-opacity:1"
       width="100%"
       height="100%" />
    <use
       transform="translate(-31.5,-31.5)"
       x="80"
       y="184"
       xlink:href="#p"
       id="use171"
       style="fill:#000000;stroke:#000000;stroke-opacity:1"
       width="100%"
       height="100%" />
    <use
       transform="translate(-31.5,-31.5)"
       x="80"
       y="192"
       xlink:href="#p"
       id="use173"
       style="fill:#000000;stroke:#000000;stroke-opacity:1"
       width="100%"
       height="100%" />
    <use
       transform="translate(-31.5,-31.5)"
       x="88"
       y="104"
       xlink:href="#p"
       id="use175"
       style="fill:#000000;stroke:#000000;stroke-opacity:1"
       width="100%"
       height="100%" />
    <use
       transform="translate(-31.5,-31.5)"
       x="88"
       y="112"
       xlink:href="#p"
       id="use177"
       style="fill:#000000;stroke:#000000;stroke-opacity:1"
       width="100%"
       height="100%" />
    <use
       transform="translate(-31.5,-31.5)"
       x="88"
       y="128"
       xlink:href="#p"
       id="use179"
       style="fill:#000000;stroke:#000000;stroke-opacity:1"
       width="100%"
       height="100%" />
    <use
       transform="translate(-31.5,-31.5)"
       x="96"
       y="32"
       xlink:href="#p"
       id="use181"
       style="fill:#000000;stroke:#000000;stroke-opacity:1"
       width="100%"
       height="100%" />
    <use
       transform="translate(-31.5,-31.5)"
       x="96"
       y="40"
       xlink:href="#p"
       id="use183"
       style="fill:#000000;stroke:#000000;stroke-opacity:1"
       width="100%"
       height="100%" />
    <use
       transform="translate(-31.5,-31.5)"
       x="96"
       y="48"
       xlink:href="#p"
       id="use185"
       style="fill:#000000;stroke:#000000;stroke-opacity:1"
       width="100%"
       height="100%" />
    <use
       transform="translate(-31.5,-31.5)"
       x="96"
       y="56"
       xlink:href="#p"
       id="use187"
       style="fill:#000000;stroke:#000000;stroke-opacity:1"
       width="100%"
       height="100%" />
    <use
       transform="translate(-31.5,-31.5)"
       x="96"
       y="72"
       xlink:href="#p"
       id="use189"
       style="fill:#000000;stroke:#000000;stroke-opacity:1"
       width="100%"
       height="100%" />
    <use
       transform="translate(-31.5,-31.5)"
       x="96"
       y="80"
       xlink:href="#p"
       id="use191"
       style="fill:#000000;stroke:#000000;stroke-opacity:1"
       width="100%"
       height="100%" />
    <use
       transform="translate(-31.5,-31.5)"
       x="96"
       y="104"
       xlink:href="#p"
       id="use193"
       style="fill:#000000;stroke:#000000;stroke-opacity:1"
       width="100%"
       height="100%" />
    <use
       transform="translate(-31.5,-31.5)"
       x="96"
       y="112"
       xlink:href="#p"
       id="use195"
       style="fill:#000000;stroke:#000000;stroke-opacity:1"
       width="100%"
       height="100%" />
    <use
       transform="translate(-31.5,-31.5)"
       x="96"
       y="120"
       xlink:href="#p"
       id="use197"
       style="fill:#000000;stroke:#000000;stroke-opacity:1"
       width="100%"
       height="100%" />
    <use
       transform="translate(-31.5,-31.5)"
       x="96"
       y="128"
       xlink:href="#p"
       id="use199"
       style="fill:#000000;stroke:#000000;stroke-opacity:1"
       width="100%"
       height="100%" />
    <use
       transform="translate(-31.5,-31.5)"
       x="96"
       y="136"
       xlink:href="#p"
       id="use201"
       style="fill:#000000;stroke:#000000;stroke-opacity:1"
       width="100%"
       height="100%" />
    <use
       transform="translate(-31.5,-31.5)"
       x="96"
       y="152"
       xlink:href="#p"
       id="use203"
       style="fill:#000000;stroke:#000000;stroke-opacity:1"
       width="100%"
       height="100%" />
    <use
       transform="translate(-31.5,-31.5)"
       x="96"
       y="160"
       xlink:href="#p"
       id="use205"
       style="fill:#000000;stroke:#000000;stroke-opacity:1"
       width="100%"
       height="100%" />
    <use
       transform="translate(-31.5,-31.5)"
       x="96"
       y="184"
       xlink:href="#p"
       id="use207"
       style="fill:#000000;stroke:#000000;stroke-opacity:1"
       width="100%"
       height="100%" />
    <use
       transform="translate(-31.5,-31.5)"
       x="96"
       y="192"
       xlink:href="#p"
       id="use209"
       style="fill:#000000;stroke:#000000;stroke-opacity:1"
       width="100%"
       height="100%" />
    <use
       transform="translate(-31.5,-31.5)"
       x="104"
       y="40"
       xlink:href="#p"
       id="use211"
       style="fill:#000000;stroke:#000000;stroke-opacity:1"
       width="100%"
       height="100%" />
    <use
       transform="translate(-31.5,-31.5)"
       x="104"
       y="48"
       xlink:href="#p"
       id="use213"
       style="fill:#000000;stroke:#000000;stroke-opacity:1"
       width="100%"
       height="100%" />
    <use
       transform="translate(-31.5,-31.5)"
       x="104"
       y="64"
       xlink:href="#p"
       id="use215"
       style="fill:#000000;stroke:#000000;stroke-opacity:1"
       width="100%"
       height="100%" />
    <use
       transform="translate(-31.5,-31.5)"
       x="104"
       y="112"
       xlink:href="#p"
       id="use217"
       style="fill:#000000;stroke:#000000;stroke-opacity:1"
       width="100%"
       height="100%" />
    <use
       transform="translate(-31.5,-31.5)"
       x="104"
       y="120"
       xlink:href="#p"
       id="use219"
       style="fill:#000000;stroke:#000000;stroke-opacity:1"
       width="100%"
       height="100%" />
    <use
       transform="translate(-31.5,-31.5)"
       x="104"
       y="144"
       xlink:href="#p"
       id="use221"
       style="fill:#000000;stroke:#000000;stroke-opacity:1"
       width="100%"
       height="100%" />
    <use
       transform="translate(-31.5,-31.5)"
       x="104"
       y="152"
       xlink:href="#p"
       id="use223"
       style="fill:#000000;stroke:#000000;stroke-opacity:1"
       width="100%"
       height="100%" />
    <use
       transform="translate(-31.5,-31.5)"
       x="104"
       y="160"
       xlink:href="#p"
       id="use225"
       style="fill:#000000;stroke:#000000;stroke-opacity:1"
       width="100%"
       height="100%" />
    <use
       transform="translate(-31.5,-31.5)"
       x="104"
       y="168"
       xlink:href="#p"
       id="use227"
       style="fill:#000000;stroke:#000000;stroke-opacity:1"
       width="100%"
       height="100%" />
    <use
       transform="translate(-31.5,-31.5)"
       x="104"
       y="176"
       xlink:href="#p"
       id="use229"
       style="fill:#000000;stroke:#000000;stroke-opacity:1"
       width="100%"
       height="100%" />
    <use
       transform="translate(-31.5,-31.5)"
       x="104"
       y="184"
       xlink:href="#p"
       id="use231"
       style="fill:#000000;stroke:#000000;stroke-opacity:1"
       width="100%"
       height="100%" />
    <use
       transform="translate(-31.5,-31.5)"
       x="112"
       y="48"
       xlink:href="#p"
       id="use233"
       style="fill:#000000;stroke:#000000;stroke-opacity:1"
       width="100%"
       height="100%" />
    <use
       transform="translate(-31.5,-31.5)"
       x="112"
       y="56"
       xlink:href="#p"
       id="use235"
       style="fill:#000000;stroke:#000000;stroke-opacity:1"
       width="100%"
       height="100%" />
    <use
       transform="translate(-31.5,-31.5)"
       x="112"
       y="64"
       xlink:href="#p"
       id="use237"
       style="fill:#000000;stroke:#000000;stroke-opacity:1"
       width="100%"
       height="100%" />
    <use
       transform="translate(-31.5,-31.5)"
       x="112"
       y="72"
       xlink:href="#p"
       id="use239"
       style="fill:#000000;stroke:#000000;stroke-opacity:1"
       width="100%"
       height="100%" />
    <use
       transform="translate(-31.5,-31.5)"
       x="112"
       y="80"
       xlink:href="#p"
       id="use241"
       style="fill:#000000;stroke:#000000;stroke-opacity:1"
       width="100%"
       height="100%" />
    <use
       transform="translate(-31.5,-31.5)"
       x="112"
       y="104"
       xlink:href="#p"
       id="use243"
       style="fill:#000000;stroke:#000000;stroke-opacity:1"
       width="100%"
       height="100%" />
    <use
       transform="translate(-31.5,-31.5)"
       x="112"
       y="112"
       xlink:href="#p"
       id="use245"
       style="fill:#000000;stroke:#000000;stroke-opacity:1"
       width="100%"
       height="100%" />
    <use
       transform="translate(-31.5,-31.5)"
       x="112"
       y="120"
       xlink:href="#p"
       id="use247"
       style="fill:#000000;stroke:#000000;stroke-opacity:1"
       width="100%"
       height="100%" />
    <use
       transform="translate(-31.5,-31.5)"
       x="112"
       y="128"
       xlink:href="#p"
       id="use249"
       style="fill:#000000;stroke:#000000;stroke-opacity:1"
       width="100%"
       height="100%" />
    <use
       transform="translate(-31.5,-31.5)"
       x="112"
       y="168"
       xlink:href="#p"
       id="use251"
       style="fill:#000000;stroke:#000000;stroke-opacity:1"
       width="100%"
       height="100%" />
    <use
       transform="translate(-31.5,-31.5)"
       x="112"
       y="184"
       xlink:href="#p"
       id="use253"
       style="fill:#000000;stroke:#000000;stroke-opacity:1"
       width="100%"
       height="100%" />
    <use
       transform="translate(-31.5,-31.5)"
       x="120"
       y="40"
       xlink:href="#p"
       id="use255"
       style="fill:#000000;stroke:#000000;stroke-opacity:1"
       width="100%"
       height="100%" />
    <use
       transform="translate(-31.5,-31.5)"
       x="120"
       y="48"
       xlink:href="#p"
       id="use257"
       style="fill:#000000;stroke:#000000;stroke-opacity:1"
       width="100%"
       height="100%" />
    <use
       transform="translate(-31.5,-31.5)"
       x="120"
       y="128"
       xlink:href="#p"
       id="use259"
       style="fill:#000000;stroke:#000000;stroke-opacity:1"
       width="100%"
       height="100%" />
    <use
       transform="translate(-31.5,-31.5)"
       x="120"
       y="136"
       xlink:href="#p"
       id="use261"
       style="fill:#000000;stroke:#000000;stroke-opacity:1"
       width="100%"
       height="100%" />
    <use
       transform="translate(-31.5,-31.5)"
       x="120"
       y="152"
       xlink:href="#p"
       id="use263"
       style="fill:#000000;stroke:#000000;stroke-opacity:1"
       width="100%"
       height="100%" />
    <use
       transform="translate(-31.5,-31.5)"
       x="120"
       y="160"
       xlink:href="#p"
       id="use265"
       style="fill:#000000;stroke:#000000;stroke-opacity:1"
       width="100%"
       height="100%" />
    <use
       transform="translate(-31.5,-31.5)"
       x="120"
       y="176"
       xlink:href="#p"
       id="use267"
       style="fill:#000000;stroke:#000000;stroke-opacity:1"
       width="100%"
       height="100%" />
    <use
       transform="translate(-31.5,-31.5)"
       x="120"
       y="192"
       xlink:href="#p"
       id="use269"
       style="fill:#000000;stroke:#000000;stroke-opacity:1"
       width="100%"
       height="100%" />
    <use
       transform="translate(-31.5,-31.5)"
       x="128"
       y="32"
       xlink:href="#p"
       id="use271"
       style="fill:#000000;stroke:#000000;stroke-opacity:1"
       width="100%"
       height="100%" />
    <use
       transform="translate(-31.5,-31.5)"
       x="128"
       y="48"
       xlink:href="#p"
       id="use273"
       style="fill:#000000;stroke:#000000;stroke-opacity:1"
       width="100%"
       height="100%" />
    <use
       transform="translate(-31.5,-31.5)"
       x="128"
       y="56"
       xlink:href="#p"
       id="use275"
       style="fill:#000000;stroke:#000000;stroke-opacity:1"
       width="100%"
       height="100%" />
    <use
       transform="translate(-31.5,-31.5)"
       x="128"
       y="64"
       xlink:href="#p"
       id="use277"
       style="fill:#000000;stroke:#000000;stroke-opacity:1"
       width="100%"
       height="100%" />
    <use
       transform="translate(-31.5,-31.5)"
       x="128"
       y="72"
       xlink:href="#p"
       id="use279"
       style="fill:#000000;stroke:#000000;stroke-opacity:1"
       width="100%"
       height="100%" />
    <use
       transform="translate(-31.5,-31.5)"
       x="128"
       y="80"
       xlink:href="#p"
       id="use281"
       style="fill:#000000;stroke:#000000;stroke-opacity:1"
       width="100%"
       height="100%" />
    <use
       transform="translate(-31.5,-31.5)"
       x="128"
       y="88"
       xlink:href="#p"
       id="use283"
       style="fill:#000000;stroke:#000000;stroke-opacity:1"
       width="100%"
       height="100%" />
    <use
       transform="translate(-31.5,-31.5)"
       x="128"
       y="128"
       xlink:href="#p"
       id="use285"
       style="fill:#000000;stroke:#000000;stroke-opacity:1"
       width="100%"
       height="100%" />
    <use
       transform="translate(-31.5,-31.5)"
       x="128"
       y="152"
       xlink:href="#p"
       id="use287"
       style="fill:#000000;stroke:#000000;stroke-opacity:1"
       width="100%"
       height="100%" />
    <use
       transform="translate(-31.5,-31.5)"
       x="128"
       y="184"
       xlink:href="#p"
       id="use289"
       style="fill:#000000;stroke:#000000;stroke-opacity:1"
       width="100%"
       height="100%" />
    <use
       transform="translate(-31.5,-31.5)"
       x="128"
       y="192"
       xlink:href="#p"
       id="use291"
       style="fill:#000000;stroke:#000000;stroke-opacity:1"
       width="100%"
       height="100%" />
    <use
       transform="translate(-31.5,-31.5)"
       x="136"
       y="104"
       xlink:href="#p"
       id="use293"
       style="fill:#000000;stroke:#000000;stroke-opacity:1"
       width="100%"
       height="100%" />
    <use
       transform="translate(-31.5,-31.5)"
       x="136"
       y="112"
       xlink:href="#p"
       id="use295"
       style="fill:#000000;stroke:#000000;stroke-opacity:1"
       width="100%"
       height="100%" />
    <use
       transform="translate(-31.5,-31.5)"
       x="136"
       y="136"
       xlink:href="#p"
       id="use297"
       style="fill:#000000;stroke:#000000;stroke-opacity:1"
       width="100%"
       height="100%" />
    <use
       transform="translate(-31.5,-31.5)"
       x="136"
       y="144"
       xlink:href="#p"
       id="use299"
       style="fill:#000000;stroke:#000000;stroke-opacity:1"
       width="100%"
       height="100%" />
    <use
       transform="translate(-31.5,-31.5)"
       x="136"
       y="168"
       xlink:href="#p"
       id="use301"
       style="fill:#000000;stroke:#000000;stroke-opacity:1"
       width="100%"
       height="100%" />
    <use
       transform="translate(-31.5,-31.5)"
       x="136"
       y="176"
       xlink:href="#p"
       id="use303"
       style="fill:#000000;stroke:#000000;stroke-opacity:1"
       width="100%"
       height="100%" />
    <use
       transform="translate(-31.5,-31.5)"
       x="144"
       y="32"
       xlink:href="#p"
       id="use305"
       style="fill:#000000;stroke:#000000;stroke-opacity:1"
       width="100%"
       height="100%" />
    <use
       transform="translate(-31.5,-31.5)"
       x="144"
       y="40"
       xlink:href="#p"
       id="use307"
       style="fill:#000000;stroke:#000000;stroke-opacity:1"
       width="100%"
       height="100%" />
    <use
       transform="translate(-31.5,-31.5)"
       x="144"
       y="48"
       xlink:href="#p"
       id="use309"
       style="fill:#000000;stroke:#000000;stroke-opacity:1"
       width="100%"
       height="100%" />
    <use
       transform="translate(-31.5,-31.5)"
       x="144"
       y="56"
       xlink:href="#p"
       id="use311"
       style="fill:#000000;stroke:#000000;stroke-opacity:1"
       width="100%"
       height="100%" />
    <use
       transform="translate(-31.5,-31.5)"
       x="144"
       y="64"
       xlink:href="#p"
       id="use313"
       style="fill:#000000;stroke:#000000;stroke-opacity:1"
       width="100%"
       height="100%" />
    <use
       transform="translate(-31.5,-31.5)"
       x="144"
       y="72"
       xlink:href="#p"
       id="use315"
       style="fill:#000000;stroke:#000000;stroke-opacity:1"
       width="100%"
       height="100%" />
    <use
       transform="translate(-31.5,-31.5)"
       x="144"
       y="80"
       xlink:href="#p"
       id="use317"
       style="fill:#000000;stroke:#000000;stroke-opacity:1"
       width="100%"
       height="100%" />
    <use
       transform="translate(-31.5,-31.5)"
       x="144"
       y="104"
       xlink:href="#p"
       id="use319"
       style="fill:#000000;stroke:#000000;stroke-opacity:1"
       width="100%"
       height="100%" />
    <use
       transform="translate(-31.5,-31.5)"
       x="152"
       y="32"
       xlink:href="#p"
       id="use321"
       style="fill:#000000;stroke:#000000;stroke-opacity:1"
       width="100%"
       height="100%" />
    <use
       transform="translate(-31.5,-31.5)"
       x="152"
       y="80"
       xlink:href="#p"
       id="use323"
       style="fill:#000000;stroke:#000000;stroke-opacity:1"
       width="100%"
       height="100%" />
    <use
       transform="translate(-31.5,-31.5)"
       x="152"
       y="96"
       xlink:href="#p"
       id="use325"
       style="fill:#000000;stroke:#000000;stroke-opacity:1"
       width="100%"
       height="100%" />
    <use
       transform="translate(-31.5,-31.5)"
       x="152"
       y="104"
       xlink:href="#p"
       id="use327"
       style="fill:#000000;stroke:#000000;stroke-opacity:1"
       width="100%"
       height="100%" />
    <use
       transform="translate(-31.5,-31.5)"
       x="152"
       y="112"
       xlink:href="#p"
       id="use329"
       style="fill:#000000;stroke:#000000;stroke-opacity:1"
       width="100%"
       height="100%" />
    <use
       transform="translate(-31.5,-31.5)"
       x="152"
       y="120"
       xlink:href="#p"
       id="use331"
       style="fill:#000000;stroke:#000000;stroke-opacity:1"
       width="100%"
       height="100%" />
    <use
       transform="translate(-31.5,-31.5)"
       x="152"
       y="152"
       xlink:href="#p"
       id="use333"
       style="fill:#000000;stroke:#000000;stroke-opacity:1"
       width="100%"
       height="100%" />
    <use
       transform="translate(-31.5,-31.5)"
       x="152"
       y="184"
       xlink:href="#p"
       id="use335"
       style="fill:#000000;stroke:#000000;stroke-opacity:1"
       width="100%"
       height="100%" />
    <use
       transform="translate(-31.5,-31.5)"
       x="152"
       y="192"
       xlink:href="#p"
       id="use337"
       style="fill:#000000;stroke:#000000;stroke-opacity:1"
       width="100%"
       height="100%" />
    <use
       transform="translate(-31.5,-31.5)"
       x="160"
       y="32"
       xlink:href="#p"
       id="use339"
       style="fill:#000000;stroke:#000000;stroke-opacity:1"
       width="100%"
       height="100%" />
    <use
       transform="translate(-31.5,-31.5)"
       x="160"
       y="48"
       xlink:href="#p"
       id="use341"
       style="fill:#000000;stroke:#000000;stroke-opacity:1"
       width="100%"
       height="100%" />
    <use
       transform="translate(-31.5,-31.5)"
       x="160"
       y="56"
       xlink:href="#p"
       id="use343"
       style="fill:#000000;stroke:#000000;stroke-opacity:1"
       width="100%"
       height="100%" />
    <use
       transform="translate(-31.5,-31.5)"
       x="160"
       y="64"
       xlink:href="#p"
       id="use345"
       style="fill:#000000;stroke:#000000;stroke-opacity:1"
       width="100%"
       height="100%" />
    <use
       transform="translate(-31.5,-31.5)"
       x="160"
       y="80"
       xlink:href="#p"
       id="use347"
       style="fill:#000000;stroke:#000000;stroke-opacity:1"
       width="100%"
       height="100%" />
    <use
       transform="translate(-31.5,-31.5)"
       x="160"
       y="104"
       xlink:href="#p"
       id="use349"
       style="fill:#000000;stroke:#000000;stroke-opacity:1"
       width="100%"
       height="100%" />
    <use
       transform="translate(-31.5,-31.5)"
       x="160"
       y="112"
       xlink:href="#p"
       id="use351"
       style="fill:#000000;stroke:#000000;stroke-opacity:1"
       width="100%"
       height="100%" />
    <use
       transform="translate(-31.5,-31.5)"
       x="160"
       y="120"
       xlink:href="#p"
       id="use353"
       style="fill:#000000;stroke:#000000;stroke-opacity:1"
       width="100%"
       height="100%" />
    <use
       transform="translate(-31.5,-31.5)"
       x="160"
       y="128"
       xlink:href="#p"
       id="use355"
       style="fill:#000000;stroke:#000000;stroke-opacity:1"
       width="100%"
       height="100%" />
    <use
       transform="translate(-31.5,-31.5)"
       x="160"
       y="136"
       xlink:href="#p"
       id="use357"
       style="fill:#000000;stroke:#000000;stroke-opacity:1"
       width="100%"
       height="100%" />
    <use
       transform="translate(-31.5,-31.5)"
       x="160"
       y="144"
       xlink:href="#p"
       id="use359"
       style="fill:#000000;stroke:#000000;stroke-opacity:1"
       width="100%"
       height="100%" />
    <use
       transform="translate(-31.5,-31.5)"
       x="160"
       y="160"
       xlink:href="#p"
       id="use361"
       style="fill:#000000;stroke:#000000;stroke-opacity:1"
       width="100%"
       height="100%" />
    <use
       transform="translate(-31.5,-31.5)"
       x="160"
       y="168"
       xlink:href="#p"
       id="use363"
       style="fill:#000000;stroke:#000000;stroke-opacity:1"
       width="100%"
       height="100%" />
    <use
       transform="translate(-31.5,-31.5)"
       x="160"
       y="176"
       xlink:href="#p"
       id="use365"
       style="fill:#000000;stroke:#000000;stroke-opacity:1"
       width="100%"
       height="100%" />
    <use
       transform="translate(-31.5,-31.5)"
       x="160"
       y="184"
       xlink:href="#p"
       id="use367"
       style="fill:#000000;stroke:#000000;stroke-opacity:1"
       width="100%"
       height="100%" />
    <use
       transform="translate(-31.5,-31.5)"
       x="168"
       y="32"
       xlink:href="#p"
       id="use369"
       style="fill:#000000;stroke:#000000;stroke-opacity:1"
       width="100%"
       height="100%" />
    <use
       transform="translate(-31.5,-31.5)"
       x="168"
       y="48"
       xlink:href="#p"
       id="use371"
       style="fill:#000000;stroke:#000000;stroke-opacity:1"
       width="100%"
       height="100%" />
    <use
       transform="translate(-31.5,-31.5)"
       x="168"
       y="56"
       xlink:href="#p"
       id="use373"
       style="fill:#000000;stroke:#000000;stroke-opacity:1"
       width="100%"
       height="100%" />
    <use
       transform="translate(-31.5,-31.5)"
       x="168"
       y="64"
       xlink:href="#p"
       id="use375"
       style="fill:#000000;stroke:#000000;stroke-opacity:1"
       width="100%"
       height="100%" />
    <use
       transform="translate(-31.5,-31.5)"
       x="168"
       y="80"
       xlink:href="#p"
       id="use377"
       style="fill:#000000;stroke:#000000;stroke-opacity:1"
       width="100%"
       height="100%" />
    <use
       transform="translate(-31.5,-31.5)"
       x="168"
       y="96"
       xlink:href="#p"
       id="use379"
       style="fill:#000000;stroke:#000000;stroke-opacity:1"
       width="100%"
       height="100%" />
    <use
       transform="translate(-31.5,-31.5)"
       x="168"
       y="128"
       xlink:href="#p"
       id="use381"
       style="fill:#000000;stroke:#000000;stroke-opacity:1"
       width="100%"
       height="100%" />
    <use
       transform="translate(-31.5,-31.5)"
       x="168"
       y="136"
       xlink:href="#p"
       id="use383"
       style="fill:#000000;stroke:#000000;stroke-opacity:1"
       width="100%"
       height="100%" />
    <use
       transform="translate(-31.5,-31.5)"
       x="168"
       y="144"
       xlink:href="#p"
       id="use385"
       style="fill:#000000;stroke:#000000;stroke-opacity:1"
       width="100%"
       height="100%" />
    <use
       transform="translate(-31.5,-31.5)"
       x="168"
       y="152"
       xlink:href="#p"
       id="use387"
       style="fill:#000000;stroke:#000000;stroke-opacity:1"
       width="100%"
       height="100%" />
    <use
       transform="translate(-31.5,-31.5)"
       x="168"
       y="168"
       xlink:href="#p"
       id="use389"
       style="fill:#000000;stroke:#000000;stroke-opacity:1"
       width="100%"
       height="100%" />
    <use
       transform="translate(-31.5,-31.5)"
       x="168"
       y="176"
       xlink:href="#p"
       id="use391"
       style="fill:#000000;stroke:#000000;stroke-opacity:1"
       width="100%"
       height="100%" />
    <use
       transform="translate(-31.5,-31.5)"
       x="176"
       y="32"
       xlink:href="#p"
       id="use393"
       style="fill:#000000;stroke:#000000;stroke-opacity:1"
       width="100%"
       height="100%" />
    <use
       transform="translate(-31.5,-31.5)"
       x="176"
       y="48"
       xlink:href="#p"
       id="use395"
       style="fill:#000000;stroke:#000000;stroke-opacity:1"
       width="100%"
       height="100%" />
    <use
       transform="translate(-31.5,-31.5)"
       x="176"
       y="56"
       xlink:href="#p"
       id="use397"
       style="fill:#000000;stroke:#000000;stroke-opacity:1"
       width="100%"
       height="100%" />
    <use
       transform="translate(-31.5,-31.5)"
       x="176"
       y="64"
       xlink:href="#p"
       id="use399"
       style="fill:#000000;stroke:#000000;stroke-opacity:1"
       width="100%"
       height="100%" />
    <use
       transform="translate(-31.5,-31.5)"
       x="176"
       y="80"
       xlink:href="#p"
       id="use401"
       style="fill:#000000;stroke:#000000;stroke-opacity:1"
       width="100%"
       height="100%" />
    <use
       transform="translate(-31.5,-31.5)"
       x="176"
       y="96"
       xlink:href="#p"
       id="use403"
       style="fill:#000000;stroke:#000000;stroke-opacity:1"
       width="100%"
       height="100%" />
    <use
       transform="translate(-31.5,-31.5)"
       x="176"
       y="136"
       xlink:href="#p"
       id="use405"
       style="fill:#000000;stroke:#000000;stroke-opacity:1"
       width="100%"
       height="100%" />
    <use
       transform="translate(-31.5,-31.5)"
       x="176"
       y="176"
       xlink:href="#p"
       id="use407"
       style="fill:#000000;stroke:#000000;stroke-opacity:1"
       width="100%"
       height="100%" />
    <use
       transform="translate(-31.5,-31.5)"
       x="184"
       y="32"
       xlink:href="#p"
       id="use409"
       style="fill:#000000;stroke:#000000;stroke-opacity:1"
       width="100%"
       height="100%" />
    <use
       transform="translate(-31.5,-31.5)"
       x="184"
       y="80"
       xlink:href="#p"
       id="use411"
       style="fill:#000000;stroke:#000000;stroke-opacity:1"
       width="100%"
       height="100%" />
    <use
       transform="translate(-31.5,-31.5)"
       x="184"
       y="96"
       xlink:href="#p"
       id="use413"
       style="fill:#000000;stroke:#000000;stroke-opacity:1"
       width="100%"
       height="100%" />
    <use
       transform="translate(-31.5,-31.5)"
       x="184"
       y="104"
       xlink:href="#p"
       id="use415"
       style="fill:#000000;stroke:#000000;stroke-opacity:1"
       width="100%"
       height="100%" />
    <use
       transform="translate(-31.5,-31.5)"
       x="184"
       y="112"
       xlink:href="#p"
       id="use417"
       style="fill:#000000;stroke:#000000;stroke-opacity:1"
       width="100%"
       height="100%" />
    <use
       transform="translate(-31.5,-31.5)"
       x="184"
       y="120"
       xlink:href="#p"
       id="use419"
       style="fill:#000000;stroke:#000000;stroke-opacity:1"
       width="100%"
       height="100%" />
    <use
       transform="translate(-31.5,-31.5)"
       x="184"
       y="136"
       xlink:href="#p"
       id="use421"
       style="fill:#000000;stroke:#000000;stroke-opacity:1"
       width="100%"
       height="100%" />
    <use
       transform="translate(-31.5,-31.5)"
       x="184"
       y="144"
       xlink:href="#p"
       id="use423"
       style="fill:#000000;stroke:#000000;stroke-opacity:1"
       width="100%"
       height="100%" />
    <use
       transform="translate(-31.5,-31.5)"
       x="184"
       y="168"
       xlink:href="#p"
       id="use425"
       style="fill:#000000;stroke:#000000;stroke-opacity:1"
       width="100%"
       height="100%" />
    <use
       transform="translate(-31.5,-31.5)"
       x="192"
       y="32"
       xlink:href="#p"
       id="use427"
       style="fill:#000000;stroke:#000000;stroke-opacity:1"
       width="100%"
       height="100%" />
    <use
       transform="translate(-31.5,-31.5)"
       x="192"
       y="40"
       xlink:href="#p"
       id="use429"
       style="fill:#000000;stroke:#000000;stroke-opacity:1"
       width="100%"
       height="100%" />
    <use
       transform="translate(-31.5,-31.5)"
       x="192"
       y="48"
       xlink:href="#p"
       id="use431"
       style="fill:#000000;stroke:#000000;stroke-opacity:1"
       width="100%"
       height="100%" />
    <use
       transform="translate(-31.5,-31.5)"
       x="192"
       y="56"
       xlink:href="#p"
       id="use433"
       style="fill:#000000;stroke:#000000;stroke-opacity:1"
       width="100%"
       height="100%" />
    <use
       transform="translate(-31.5,-31.5)"
       x="192"
       y="64"
       xlink:href="#p"
       id="use435"
       style="fill:#000000;stroke:#000000;stroke-opacity:1"
       width="100%"
       height="100%" />
    <use
       transform="translate(-31.5,-31.5)"
       x="192"
       y="72"
       xlink:href="#p"
       id="use437"
       style="fill:#000000;stroke:#000000;stroke-opacity:1"
       width="100%"
       height="100%" />
    <use
       transform="translate(-31.5,-31.5)"
       x="192"
       y="80"
       xlink:href="#p"
       id="use439"
       style="fill:#000000;stroke:#000000;stroke-opacity:1"
       width="100%"
       height="100%" />
    <use
       transform="translate(-31.5,-31.5)"
       x="192"
       y="96"
       xlink:href="#p"
       id="use441"
       style="fill:#000000;stroke:#000000;stroke-opacity:1"
       width="100%"
       height="100%" />
    <use
       transform="translate(-31.5,-31.5)"
       x="192"
       y="120"
       xlink:href="#p"
       id="use443"
       style="fill:#000000;stroke:#000000;stroke-opacity:1"
       width="100%"
       height="100%" />
    <use
       transform="translate(-31.5,-31.5)"
       x="192"
       y="128"
       xlink:href="#p"
       id="use445"
       style="fill:#000000;stroke:#000000;stroke-opacity:1"
       width="100%"
       height="100%" />
    <use
       transform="translate(-31.5,-31.5)"
       x="192"
       y="152"
       xlink:href="#p"
       id="use447"
       style="fill:#000000;stroke:#000000;stroke-opacity:1"
       width="100%"
       height="100%" />
    <use
       transform="translate(-31.5,-31.5)"
       x="192"
       y="168"
       xlink:href="#p"
       id="use449"
       style="fill:#000000;stroke:#000000;stroke-opacity:1"
       width="100%"
       height="100%" />
    <use
       transform="translate(-31.5,-31.5)"
       x="192"
       y="192"
       xlink:href="#p"
       id="use451"
       style="fill:#000000;stroke:#000000;stroke-opacity:1"
       width="100%"
       height="100%" />
  </g>
  <text
     xml:space="preserve"
     style="font-style:normal;font-weight:normal;font-size:24.75744057px;line-height:125%;font-family:sans-serif;text-align:start;letter-spacing:0px;word-spacing:0px;text-anchor:start;fill:#000000;fill-opacity:1;stroke:none;stroke-width:0.618936px;stroke-linecap:butt;stroke-linejoin:miter;stroke-opacity:1"
     x="1.3157576"
     y="188.80984"
     id="text1148"><tspan
       sodipodi:role="line"
       id="tspan1146"
       x="1.3157576"
       y="188.80984"
       style="text-align:start;text-anchor:start;stroke-width:0.618936px">Pi0to Chromic</tspan><tspan
       sodipodi:role="line"
       x="1.3157576"
       y="219.75665"
       style="text-align:start;text-anchor:start;stroke-width:0.618936px"
       id="tspan233">        site</tspan></text>
</svg>
