<?xml version="1.0" encoding="UTF-8" standalone="no"?>
<!-- Created with Inkscape (http://www.inkscape.org/) -->

<svg
   xmlns:dc="http://purl.org/dc/elements/1.1/"
   xmlns:cc="http://creativecommons.org/ns#"
   xmlns:rdf="http://www.w3.org/1999/02/22-rdf-syntax-ns#"
   xmlns:svg="http://www.w3.org/2000/svg"
   xmlns="http://www.w3.org/2000/svg"
   xmlns:sodipodi="http://sodipodi.sourceforge.net/DTD/sodipodi-0.dtd"
   xmlns:inkscape="http://www.inkscape.org/namespaces/inkscape"
   width="346.62671mm"
   height="250.69482mm"
   viewBox="0 0 346.6267 250.69483"
   version="1.1"
   id="svg8"
   inkscape:version="0.92.3 (2405546, 2018-03-11)"
   sodipodi:docname="button locations.svg">
  <defs
     id="defs2">
    <marker
       inkscape:stockid="Arrow1Lend"
       orient="auto"
       refY="0"
       refX="0"
       id="Arrow1Lend"
       style="overflow:visible"
       inkscape:isstock="true">
      <path
         id="path857"
         d="M 0,0 5,-5 -12.5,0 5,5 Z"
         style="fill:#000000;fill-opacity:1;fill-rule:evenodd;stroke:#000000;stroke-width:1.00000003pt;stroke-opacity:1"
         transform="matrix(-0.8,0,0,-0.8,-10,0)"
         inkscape:connector-curvature="0" />
    </marker>
    <marker
       inkscape:stockid="Arrow1Lstart"
       orient="auto"
       refY="0"
       refX="0"
       id="Arrow1Lstart"
       style="overflow:visible"
       inkscape:isstock="true">
      <path
         id="path854"
         d="M 0,0 5,-5 -12.5,0 5,5 Z"
         style="fill:#000000;fill-opacity:1;fill-rule:evenodd;stroke:#000000;stroke-width:1.00000003pt;stroke-opacity:1"
         transform="matrix(0.8,0,0,0.8,10,0)"
         inkscape:connector-curvature="0" />
    </marker>
    <inkscape:path-effect
       effect="bspline"
       id="path-effect4603"
       is_visible="true"
       weight="33.333333"
       steps="2"
       helper_size="0"
       apply_no_weight="true"
       apply_with_weight="true"
       only_selected="false" />
    <inkscape:path-effect
       effect="bspline"
       id="path-effect4581"
       is_visible="true"
       weight="33.333333"
       steps="2"
       helper_size="0"
       apply_no_weight="true"
       apply_with_weight="true"
       only_selected="false" />
    <inkscape:path-effect
       effect="bspline"
       id="path-effect4567"
       is_visible="true"
       weight="33.333333"
       steps="2"
       helper_size="0"
       apply_no_weight="true"
       apply_with_weight="true"
       only_selected="false" />
    <inkscape:path-effect
       effect="bspline"
       id="path-effect4581-7"
       is_visible="true"
       weight="33.333333"
       steps="2"
       helper_size="0"
       apply_no_weight="true"
       apply_with_weight="true"
       only_selected="false" />
    <inkscape:path-effect
       effect="bspline"
       id="path-effect4603-3"
       is_visible="true"
       weight="33.333333"
       steps="2"
       helper_size="0"
       apply_no_weight="true"
       apply_with_weight="true"
       only_selected="false" />
  </defs>
  <sodipodi:namedview
     id="base"
     pagecolor="#ffffff"
     bordercolor="#666666"
     borderopacity="1.0"
     inkscape:pageopacity="0.0"
     inkscape:pageshadow="2"
     inkscape:zoom="0.87667286"
     inkscape:cx="640.3787"
     inkscape:cy="565.00813"
     inkscape:document-units="mm"
     inkscape:current-layer="layer1"
     showgrid="false"
     inkscape:window-width="1920"
     inkscape:window-height="1029"
     inkscape:window-x="0"
     inkscape:window-y="23"
     inkscape:window-maximized="1"
     inkscape:snap-bbox="true"
     inkscape:bbox-paths="true"
     inkscape:bbox-nodes="true"
     inkscape:snap-bbox-edge-midpoints="true"
     inkscape:snap-bbox-midpoints="true"
     inkscape:snap-object-midpoints="true"
     inkscape:snap-center="true"
     inkscape:snap-intersection-paths="true"
     inkscape:snap-midpoints="true"
     inkscape:snap-grids="true"
     inkscape:object-paths="true"
     inkscape:snap-text-baseline="true"
     fit-margin-top="0"
     fit-margin-left="0"
     fit-margin-right="0"
     fit-margin-bottom="0"
     inkscape:snap-global="true"
     inkscape:snap-page="true" />
  <metadata
     id="metadata5">
    <rdf:RDF>
      <cc:Work
         rdf:about="">
        <dc:format>image/svg+xml</dc:format>
        <dc:type
           rdf:resource="http://purl.org/dc/dcmitype/StillImage" />
        <dc:title></dc:title>
      </cc:Work>
    </rdf:RDF>
  </metadata>
  <g
     inkscape:label="Layer 1"
     inkscape:groupmode="layer"
     id="layer1"
     transform="translate(2.3899066,57.899732)">
    <rect
       style="fill:#000000;fill-opacity:1;fill-rule:evenodd;stroke:none;stroke-width:2;stroke-miterlimit:4;stroke-dasharray:none;stroke-opacity:1"
       id="rect844"
       width="230.89517"
       height="5.310842"
       x="-38.100075"
       y="-286.07648"
       transform="rotate(90)" />
    <rect
       style="fill:#000000;fill-opacity:1;fill-rule:evenodd;stroke:none;stroke-width:2;stroke-miterlimit:4;stroke-dasharray:none;stroke-opacity:1"
       id="rect844-3"
       width="230.89517"
       height="5.310842"
       x="-286.07648"
       y="32.789234"
       transform="scale(-1)" />
    <rect
       style="fill:#000000;fill-opacity:1;fill-rule:evenodd;stroke:none;stroke-width:2;stroke-miterlimit:4;stroke-dasharray:none;stroke-opacity:1"
       id="rect844-6"
       width="230.89517"
       height="5.310842"
       x="-38.100075"
       y="-60.492146"
       transform="rotate(90)" />
    <rect
       style="fill:#00c300;fill-opacity:1;fill-rule:evenodd;stroke:none;stroke-width:1.37733173;stroke-miterlimit:4;stroke-dasharray:none;stroke-opacity:1"
       id="rect844-7"
       width="109.50449"
       height="5.310842"
       x="-19.259243"
       y="-291.38733"
       transform="rotate(90)" />
    <rect
       style="fill:#00448d;fill-opacity:1;fill-rule:evenodd;stroke:none;stroke-width:0.93184429;stroke-miterlimit:4;stroke-dasharray:none;stroke-opacity:1"
       id="rect844-7-5"
       width="50.123516"
       height="5.310842"
       x="11.635609"
       y="-55.181309"
       transform="rotate(90)" />
    <rect
       style="fill:#b64435;fill-opacity:1;fill-rule:evenodd;stroke:none;stroke-width:0.46282727;stroke-miterlimit:4;stroke-dasharray:none;stroke-opacity:1"
       id="rect844-7-5-3"
       width="12.364961"
       height="5.310842"
       x="-10.563564"
       y="-55.181309"
       transform="rotate(90)" />
    <rect
       style="fill:#b64435;fill-opacity:1;fill-rule:evenodd;stroke:none;stroke-width:0.46282727;stroke-miterlimit:4;stroke-dasharray:none;stroke-opacity:1"
       id="rect844-7-5-3-5"
       width="12.364961"
       height="5.310842"
       x="77.347504"
       y="-55.181309"
       transform="rotate(90)" />
    <rect
       style="fill:#b64435;fill-opacity:1;fill-rule:evenodd;stroke:none;stroke-width:0.46282727;stroke-miterlimit:4;stroke-dasharray:none;stroke-opacity:1"
       id="rect844-7-5-3-5-6"
       width="12.364961"
       height="5.310842"
       x="-75.750435"
       y="38.100071"
       transform="scale(-1)" />
    <text
       xml:space="preserve"
       style="font-style:normal;font-weight:normal;font-size:10.58333302px;line-height:1.25;font-family:sans-serif;letter-spacing:0px;word-spacing:0px;fill:#000000;fill-opacity:1;stroke:none;stroke-width:0.26458332"
       x="65.538216"
       y="-50.184441"
       id="text946"><tspan
         sodipodi:role="line"
         id="tspan944"
         x="65.538216"
         y="-50.184441"
         style="stroke-width:0.26458332">1</tspan></text>
    <text
       xml:space="preserve"
       style="font-style:normal;font-weight:normal;font-size:10.58333302px;line-height:1.25;font-family:sans-serif;letter-spacing:0px;word-spacing:0px;fill:#000000;fill-opacity:1;stroke:none;stroke-width:0.26458332"
       x="42.090134"
       y="-1.9531341"
       id="text950"><tspan
         sodipodi:role="line"
         id="tspan948"
         x="42.090134"
         y="-1.9531341"
         style="stroke-width:0.26458332">2</tspan></text>
    <text
       xml:space="preserve"
       style="font-style:normal;font-weight:normal;font-size:10.58333302px;line-height:1.25;font-family:sans-serif;letter-spacing:0px;word-spacing:0px;fill:#000000;fill-opacity:1;stroke:none;stroke-width:0.26458332"
       x="41.893761"
       y="87.167"
       id="text954"><tspan
         sodipodi:role="line"
         id="tspan952"
         x="41.893761"
         y="87.167"
         style="stroke-width:0.26458332">3</tspan></text>
    <text
       xml:space="preserve"
       style="font-style:normal;font-weight:normal;font-size:10.58333302px;line-height:1.25;font-family:sans-serif;letter-spacing:0px;word-spacing:0px;fill:#000000;fill-opacity:1;stroke:none;stroke-width:0.26458332"
       x="290.34863"
       y="32.823917"
       id="text836"><tspan
         sodipodi:role="line"
         id="tspan834"
         x="290.34863"
         y="32.823917"
         style="stroke-width:0.26458332">Raspberry </tspan><tspan
         sodipodi:role="line"
         x="290.34863"
         y="46.053085"
         style="stroke-width:0.26458332"
         id="tspan838">Pi 0</tspan></text>
    <text
       xml:space="preserve"
       style="font-style:normal;font-weight:normal;font-size:10.58333302px;line-height:1.25;font-family:sans-serif;letter-spacing:0px;word-spacing:0px;fill:#000000;fill-opacity:1;stroke:none;stroke-width:0.26458332"
       x="-2.3589008"
       y="27.413696"
       id="text842"><tspan
         sodipodi:role="line"
         id="tspan840"
         x="-2.3589008"
         y="27.413696"
         style="stroke-width:0.26458332">Capactive</tspan><tspan
         sodipodi:role="line"
         x="-2.3589008"
         y="40.642864"
         style="stroke-width:0.26458332"
         id="tspan844">Touch</tspan><tspan
         sodipodi:role="line"
         x="-2.3589008"
         y="53.872028"
         style="stroke-width:0.26458332"
         id="tspan846">Sensor</tspan></text>
    <text
       xml:space="preserve"
       style="font-style:normal;font-weight:normal;font-size:10.58333302px;line-height:1.25;font-family:sans-serif;letter-spacing:0px;word-spacing:0px;fill:#000000;fill-opacity:1;stroke:none;stroke-width:0.26458332"
       x="152.12872"
       y="-48.974293"
       id="text850"><tspan
         sodipodi:role="line"
         id="tspan848"
         x="152.12872"
         y="-48.974293"
         style="stroke-width:0.26458332">Lenses</tspan></text>
    <path
       style="fill:none;stroke:#000000;stroke-width:0.27652195;stroke-linecap:butt;stroke-linejoin:miter;stroke-miterlimit:4;stroke-dasharray:none;stroke-opacity:1;marker-start:url(#Arrow1Lstart);marker-end:url(#Arrow1Lend)"
       d="m 116.16374,-38.693861 54.62876,-9.990001 54.30164,9.990001"
       id="path852"
       inkscape:connector-curvature="0"
       sodipodi:nodetypes="ccc" />
  </g>
</svg>
